Sat Apr 28 21:28:12 CLST 2018 : Servidor de red Apache Derby: Se ha iniciado 10.10.2.0 - (1582446) y está listo para aceptar las conexiones en el puerto 1527
----------------------------------------------------------------
Sat Apr 28 21:28:13 CLST 2018:
 Iniciando instancia a816c00e-0163-0ecc-c994-fffffbeb14ca de Derby, versión The Apache Software Foundation - Apache Derby - 10.10.2.0 - (1582446): 
en el directorio de base de datos /home/damodar/NetBeansProjects/Parques_Java/DB/CANI_DB con el cargador de clases sun.misc.Launcher$AppClassLoader@5e2de80c
Cargado desde file:/home/damodar/glassfish-4.1.1/javadb/lib/derby.jar
java.vendor=Oracle Corporation
java.runtime.version=1.8.0_171-b10
user.dir=/home/damodar/glassfish-4.1.1/javadb
os.name=Linux
os.arch=amd64
os.version=4.15.17-300.fc27.x86_64
derby.system.home=/home/damodar/NetBeansProjects/Parques_Java/DB
Cargador de clases de base de datos iniciado - derby.database.classpath=''
----------------------------------------------------------------
Sat Apr 28 22:25:10 CLST 2018:
Cerrando la instancia a816c00e-0163-0ecc-c994-fffffbeb14ca en el directorio de base de datos /home/damodar/NetBeansProjects/Parques_Java/DB/CANI_DB con cargador de clases sun.misc.Launcher$AppClassLoader@5e2de80c
Sat Apr 28 22:25:10 CLST 2018 Thread[DRDAConnThread_3,5,main] (DATABASE = CANI_DB), (DRDAID = {2}), Cierre de la base de datos 'CANI_DB'.
----------------------------------------------------------------
Sat Apr 28 22:26:00 CLST 2018:
 Iniciando instancia 41588035-0163-0ecc-c994-fffffbeb14ca de Derby, versión The Apache Software Foundation - Apache Derby - 10.10.2.0 - (1582446): 
en el directorio de base de datos /home/damodar/NetBeansProjects/Parques_Java/DB/cani con el cargador de clases sun.misc.Launcher$AppClassLoader@5e2de80c
Cargado desde file:/home/damodar/glassfish-4.1.1/javadb/lib/derby.jar
java.vendor=Oracle Corporation
java.runtime.version=1.8.0_171-b10
user.dir=/home/damodar/glassfish-4.1.1/javadb
os.name=Linux
os.arch=amd64
os.version=4.15.17-300.fc27.x86_64
derby.system.home=/home/damodar/NetBeansProjects/Parques_Java/DB
Cargador de clases de base de datos iniciado - derby.database.classpath=''
----------------------------------------------------------------
Sat Apr 28 22:26:01 CLST 2018:
Cerrando la instancia 41588035-0163-0ecc-c994-fffffbeb14ca en el directorio de base de datos /home/damodar/NetBeansProjects/Parques_Java/DB/cani con cargador de clases sun.misc.Launcher$AppClassLoader@5e2de80c
Sat Apr 28 22:26:01 CLST 2018 Thread[DRDAConnThread_3,5,main] (DATABASE = cani), (DRDAID = {4}), Cierre de la base de datos 'cani'.
----------------------------------------------------------------
Sat Apr 28 22:26:09 CLST 2018:
 Iniciando instancia 953a00d1-0163-0ecc-c994-fffffbeb14ca de Derby, versión The Apache Software Foundation - Apache Derby - 10.10.2.0 - (1582446): 
en el directorio de base de datos /home/damodar/NetBeansProjects/Parques_Java/DB/cani con el cargador de clases sun.misc.Launcher$AppClassLoader@5e2de80c
Cargado desde file:/home/damodar/glassfish-4.1.1/javadb/lib/derby.jar
java.vendor=Oracle Corporation
java.runtime.version=1.8.0_171-b10
user.dir=/home/damodar/glassfish-4.1.1/javadb
os.name=Linux
os.arch=amd64
os.version=4.15.17-300.fc27.x86_64
derby.system.home=/home/damodar/NetBeansProjects/Parques_Java/DB
Cargador de clases de base de datos iniciado - derby.database.classpath=''
----------------------------------------------------------------
Sat Apr 28 22:26:18 CLST 2018:
Cerrando la instancia 953a00d1-0163-0ecc-c994-fffffbeb14ca en el directorio de base de datos /home/damodar/NetBeansProjects/Parques_Java/DB/cani con cargador de clases sun.misc.Launcher$AppClassLoader@5e2de80c
Sat Apr 28 22:26:18 CLST 2018 Thread[DRDAConnThread_4,5,main] (DATABASE = cani), (DRDAID = {6}), Cierre de la base de datos 'cani'.
----------------------------------------------------------------
Sat Apr 28 22:26:40 CLST 2018:
 Iniciando instancia db4f80ed-0163-0ecc-c994-fffffbeb14ca de Derby, versión The Apache Software Foundation - Apache Derby - 10.10.2.0 - (1582446): 
en el directorio de base de datos /home/damodar/NetBeansProjects/Parques_Java/DB/cani con el cargador de clases sun.misc.Launcher$AppClassLoader@5e2de80c
Cargado desde file:/home/damodar/glassfish-4.1.1/javadb/lib/derby.jar
java.vendor=Oracle Corporation
java.runtime.version=1.8.0_171-b10
user.dir=/home/damodar/glassfish-4.1.1/javadb
os.name=Linux
os.arch=amd64
os.version=4.15.17-300.fc27.x86_64
derby.system.home=/home/damodar/NetBeansProjects/Parques_Java/DB
Cargador de clases de base de datos iniciado - derby.database.classpath=''
----------------------------------------------------------------
Sat Apr 28 22:26:41 CLST 2018:
Cerrando la instancia db4f80ed-0163-0ecc-c994-fffffbeb14ca en el directorio de base de datos /home/damodar/NetBeansProjects/Parques_Java/DB/cani con cargador de clases sun.misc.Launcher$AppClassLoader@5e2de80c
Sat Apr 28 22:26:41 CLST 2018 Thread[DRDAConnThread_4,5,main] (DATABASE = cani), (DRDAID = {8}), Cierre de la base de datos 'cani'.
----------------------------------------------------------------
Sat Apr 28 22:26:45 CLST 2018:
 Iniciando instancia 4b390189-0163-0ecc-c994-fffffbeb14ca de Derby, versión The Apache Software Foundation - Apache Derby - 10.10.2.0 - (1582446): 
en el directorio de base de datos /home/damodar/NetBeansProjects/Parques_Java/DB/cani con el cargador de clases sun.misc.Launcher$AppClassLoader@5e2de80c
Cargado desde file:/home/damodar/glassfish-4.1.1/javadb/lib/derby.jar
java.vendor=Oracle Corporation
java.runtime.version=1.8.0_171-b10
user.dir=/home/damodar/glassfish-4.1.1/javadb
os.name=Linux
os.arch=amd64
os.version=4.15.17-300.fc27.x86_64
derby.system.home=/home/damodar/NetBeansProjects/Parques_Java/DB
Cargador de clases de base de datos iniciado - derby.database.classpath=''
